Targets Overview
…
Now everything is out of date, because the input file changed. 

---

## Reading targets

`targets` has a convenient functions `tar_read()` and `tar_load` to read your targets from the `_targets/` data store.

```r
tar_read(raw_data)
#> # A tibble: 153 x 6
#>    Ozone Solar.R  Wind  Temp Month   Day
#>    <dbl>   <dbl> <dbl> <dbl> <dbl> <dbl>
#>  1    41     190   7.4    67     5     1
#>  2    36     118   8      72     5     2
#>  3    12     149  12.6    74     5     3
#>  4    18     313  11.5    62     5     4
#>  5    NA      NA  14.3    56     5     5
#>  6    28      NA  14.9    66     5     6
#>  7    23     299   8.6    65     5     7
#>  8    19      99  13.8    59     5     8
#>  9     8      19  20.1    61     5     9
#> 10    NA     194   8.6    69     5    10
#> # … with 143 more rows
```
…
<img src="presentation_files/figure-html/unnamed-chunk-21-1.png" width="50%" />

---

## Reading targets

```r

tar_load(raw_data)
ls()
#> [1] "raw_data"
raw_data
#> # A tibble: 153 x 6
#>    Ozone Solar.R  Wind  Temp Month   Day
#>    <dbl>   <dbl> <dbl> <dbl> <dbl> <dbl>
#>  1    41     190   7.4    67     5     1
#>  2    36     118   8      72     5     2
#>  3    12     149  12.6    74     5     3
#>  4    18     313  11.5    62     5     4
#>  5    NA      NA  14.3    56     5     5
#>  6    28      NA  14.9    66     5     6
#>  7    23     299   8.6    65     5     7
#>  8    19      99  13.8    59     5     8
#>  9     8      19  20.1    61     5     9
#> 10    NA     194   8.6    69     5    10
#> # … with 143 more rows
```
…
